{"id":"1","name":"pool","price":99,"isDeluxe":true,"facilityIds":["1","2","3"]}
{"id":"2","name":"foot massage","price":99,"isDeluxe":true,"facilityIds":["1","2","3"]}
{"id":"3","name":"cinema","price":99,"isDeluxe":true,"facilityIds":["1","2","3"]}
